<?xml version="1.0" encoding="UTF-8"?>
<!DOCTYPE svg PUBLIC '-//W3C//DTD SVG 1.0//EN'
          'http://www.w3.org/TR/2001/REC-SVG-20010904/DTD/svg10.dtd'>
<svg fill-opacity="1" xmlns:xlink="http://www.w3.org/1999/xlink" color-rendering="auto" color-interpolation="auto" text-rendering="auto" stroke="black" stroke-linecap="square" width="950" stroke-miterlimit="10" shape-rendering="auto" stroke-opacity="1" fill="black" stroke-dasharray="none" font-weight="normal" stroke-width="1" viewBox="10 20 950 370" height="370" xmlns="http://www.w3.org/2000/svg" font-family="'Dialog'" font-style="normal" stroke-linejoin="miter" font-size="12px" stroke-dashoffset="0" image-rendering="auto"
><!--Generated by the Batik Graphics2D SVG Generator--><defs id="genericDefs"
  /><g
  ><defs id="defs1"
    ><clipPath clipPathUnits="userSpaceOnUse" id="clipPath1"
      ><path d="M0 0 L2147483647 0 L2147483647 2147483647 L0 2147483647 L0 0 Z"
      /></clipPath
      ><clipPath clipPathUnits="userSpaceOnUse" id="clipPath2"
      ><path d="M0 0 L0 30 L100 30 L100 0 Z"
      /></clipPath
      ><clipPath clipPathUnits="userSpaceOnUse" id="clipPath3"
      ><path d="M0 0 L0 30 L130 30 L130 0 Z"
      /></clipPath
      ><clipPath clipPathUnits="userSpaceOnUse" id="clipPath4"
      ><path d="M0 0 L0 40 L120 40 L120 0 Z"
      /></clipPath
      ><clipPath clipPathUnits="userSpaceOnUse" id="clipPath5"
      ><path d="M0 0 L0 30 L120 30 L120 0 Z"
      /></clipPath
      ><clipPath clipPathUnits="userSpaceOnUse" id="clipPath6"
      ><path d="M0 0 L0 160 L110 160 L110 0 Z"
      /></clipPath
      ><clipPath clipPathUnits="userSpaceOnUse" id="clipPath7"
      ><path d="M0 0 L0 160 L280 160 L280 0 Z"
      /></clipPath
      ><clipPath clipPathUnits="userSpaceOnUse" id="clipPath8"
      ><path d="M0 0 L0 160 L190 160 L190 0 Z"
      /></clipPath
      ><clipPath clipPathUnits="userSpaceOnUse" id="clipPath9"
      ><path d="M0 0 L0 100 L320 100 L320 0 Z"
      /></clipPath
      ><clipPath clipPathUnits="userSpaceOnUse" id="clipPath10"
      ><path d="M0 0 L0 90 L400 90 L400 0 Z"
      /></clipPath
      ><clipPath clipPathUnits="userSpaceOnUse" id="clipPath11"
      ><path d="M0 0 L0 130 L250 130 L250 0 Z"
      /></clipPath
      ><clipPath clipPathUnits="userSpaceOnUse" id="clipPath12"
      ><path d="M0 0 L0 40 L310 40 L310 0 Z"
      /></clipPath
      ><clipPath clipPathUnits="userSpaceOnUse" id="clipPath13"
      ><path d="M0 0 L0 40 L340 40 L340 0 Z"
      /></clipPath
      ><clipPath clipPathUnits="userSpaceOnUse" id="clipPath14"
      ><path d="M0 0 L0 130 L320 130 L320 0 Z"
      /></clipPath
      ><clipPath clipPathUnits="userSpaceOnUse" id="clipPath15"
      ><path d="M0 0 L0 130 L110 130 L110 0 Z"
      /></clipPath
    ></defs
    ><g fill="rgb(255,255,255)" fill-opacity="0" transform="translate(420,40)" stroke-opacity="0" stroke="rgb(255,255,255)"
    ><rect x="0.5" width="98.5" height="28.5" y="0.5" clip-path="url(#clipPath2)" stroke="none"
    /></g
    ><g transform="translate(420,40)"
    ><rect fill="none" x="0.5" width="98.5" height="28.5" y="0.5" clip-path="url(#clipPath2)"
      /><text x="35" font-size="14px" y="17.9688" clip-path="url(#clipPath2)" font-family="sans-serif" stroke="none" xml:space="preserve"
      >DHT</text
    ></g
    ><g fill="rgb(255,255,255)" fill-opacity="0" transform="translate(620,340)" stroke-opacity="0" stroke="rgb(255,255,255)"
    ><rect x="0.5" width="128.5" height="28.5" y="0.5" clip-path="url(#clipPath3)" stroke="none"
    /></g
    ><g transform="translate(620,340)"
    ><rect fill="none" x="0.5" width="128.5" height="28.5" y="0.5" clip-path="url(#clipPath3)"
      /><text x="7" font-size="14px" y="17.9688" clip-path="url(#clipPath3)" font-family="sans-serif" stroke="none" xml:space="preserve"
      >Adafruit_SSD1306</text
    ></g
    ><g fill="rgb(255,255,255)" fill-opacity="0" transform="translate(30,170)" stroke-opacity="0" stroke="rgb(255,255,255)"
    ><rect x="0.5" width="98.5" height="28.5" y="0.5" clip-path="url(#clipPath2)" stroke="none"
    /></g
    ><g transform="translate(30,170)"
    ><rect fill="none" x="0.5" width="98.5" height="28.5" y="0.5" clip-path="url(#clipPath2)"
      /><text x="4" font-size="14px" y="17.9688" clip-path="url(#clipPath2)" font-family="sans-serif" stroke="none" xml:space="preserve"
      >SoftwareSerial</text
    ></g
    ><g fill="rgb(255,255,255)" fill-opacity="0" transform="translate(80,270)" stroke-opacity="0" stroke="rgb(255,255,255)"
    ><rect x="0.5" width="98.5" height="28.5" y="0.5" clip-path="url(#clipPath2)" stroke="none"
    /></g
    ><g transform="translate(80,270)"
    ><rect fill="none" x="0.5" width="98.5" height="28.5" y="0.5" clip-path="url(#clipPath2)"
      /><text x="38" font-size="14px" y="17.9688" clip-path="url(#clipPath2)" font-family="sans-serif" stroke="none" xml:space="preserve"
      >SPI</text
    ></g
    ><g fill="rgb(255,255,255)" fill-opacity="0" transform="translate(840,170)" stroke-opacity="0" stroke="rgb(255,255,255)"
    ><rect x="0.5" width="98.5" height="28.5" y="0.5" clip-path="url(#clipPath2)" stroke="none"
    /></g
    ><g transform="translate(840,170)"
    ><rect fill="none" x="0.5" width="98.5" height="28.5" y="0.5" clip-path="url(#clipPath2)"
      /><text x="27" font-size="14px" y="17.9688" clip-path="url(#clipPath2)" font-family="sans-serif" stroke="none" xml:space="preserve"
      >MHZ19</text
    ></g
    ><g fill="rgb(255,255,255)" fill-opacity="0" transform="translate(230,340)" stroke-opacity="0" stroke="rgb(255,255,255)"
    ><rect x="0.5" width="98.5" height="28.5" y="0.5" clip-path="url(#clipPath2)" stroke="none"
    /></g
    ><g transform="translate(230,340)"
    ><rect fill="none" x="0.5" width="98.5" height="28.5" y="0.5" clip-path="url(#clipPath2)"
      /><text x="7" font-size="14px" y="17.9688" clip-path="url(#clipPath2)" font-family="sans-serif" stroke="none" xml:space="preserve"
      >Adafruit_GFX</text
    ></g
    ><g fill="rgb(255,255,255)" fill-opacity="0" transform="translate(410,170)" stroke-opacity="0" stroke="rgb(255,255,255)"
    ><ellipse rx="59.25" ry="19.25" clip-path="url(#clipPath4)" cx="59.75" cy="19.75" stroke="none"
    /></g
    ><g stroke-dasharray="8,5" stroke-miterlimit="5" transform="translate(410,170)" stroke-linecap="butt"
    ><ellipse rx="59.25" fill="none" ry="19.25" clip-path="url(#clipPath4)" cx="59.75" cy="19.75"
      /><text x="6" font-size="14px" y="23.4844" clip-path="url(#clipPath4)" font-family="sans-serif" stroke="none" xml:space="preserve"
      >CodeDevArduino</text
    ></g
    ><g fill="rgb(255,255,255)" fill-opacity="0" transform="translate(670,40)" stroke-opacity="0" stroke="rgb(255,255,255)"
    ><rect x="0.5" width="118.5" height="28.5" y="0.5" clip-path="url(#clipPath5)" stroke="none"
    /></g
    ><g transform="translate(670,40)"
    ><rect fill="none" x="0.5" width="118.5" height="28.5" y="0.5" clip-path="url(#clipPath5)"
      /><text x="3" font-size="14px" y="17.9688" clip-path="url(#clipPath5)" font-family="sans-serif" stroke="none" xml:space="preserve"
      >Adafruit_NeoPixel</text
    ></g
    ><g fill="rgb(255,255,255)" fill-opacity="0" transform="translate(170,40)" stroke-opacity="0" stroke="rgb(255,255,255)"
    ><rect x="0.5" width="98.5" height="28.5" y="0.5" clip-path="url(#clipPath2)" stroke="none"
    /></g
    ><g transform="translate(170,40)"
    ><rect fill="none" x="0.5" width="98.5" height="28.5" y="0.5" clip-path="url(#clipPath2)"
      /><text x="28" font-size="14px" y="17.9688" clip-path="url(#clipPath2)" font-family="sans-serif" stroke="none" xml:space="preserve"
      >RTClib</text
    ></g
    ><g fill="rgb(255,255,255)" fill-opacity="0" transform="translate(770,260)" stroke-opacity="0" stroke="rgb(255,255,255)"
    ><rect x="0.5" width="98.5" height="28.5" y="0.5" clip-path="url(#clipPath2)" stroke="none"
    /></g
    ><g transform="translate(770,260)"
    ><rect fill="none" x="0.5" width="98.5" height="28.5" y="0.5" clip-path="url(#clipPath2)"
      /><text x="35" font-size="14px" y="17.9688" clip-path="url(#clipPath2)" font-family="sans-serif" stroke="none" xml:space="preserve"
      >Wire</text
    ></g
    ><g fill="rgb(255,255,255)" fill-opacity="0" transform="translate(420,340)" stroke-opacity="0" stroke="rgb(255,255,255)"
    ><rect x="0.5" width="98.5" height="28.5" y="0.5" clip-path="url(#clipPath2)" stroke="none"
    /></g
    ><g transform="translate(420,340)"
    ><rect fill="none" x="0.5" width="98.5" height="28.5" y="0.5" clip-path="url(#clipPath2)"
      /><text x="27" font-size="14px" y="17.9688" clip-path="url(#clipPath2)" font-family="sans-serif" stroke="none" xml:space="preserve"
      >pitches</text
    ></g
    ><g transform="translate(460,200)"
    ><path fill="none" d="M10.5 140.5 L10.5 10.5" clip-path="url(#clipPath6)"
      /><text x="14" font-size="14px" y="82.9844" clip-path="url(#clipPath6)" font-family="sans-serif" stroke="none" xml:space="preserve"
      >teaches to ►</text
    ></g
    ><g transform="translate(500,200)"
    ><path fill="none" d="M180.5 140.5 L180.5 70.5" clip-path="url(#clipPath7)"
      /><path fill="none" d="M180.5 70.5 L10.5 10.5" clip-path="url(#clipPath7)"
      /><text x="184" font-size="14px" y="112.9844" clip-path="url(#clipPath7)" font-family="sans-serif" stroke="none" xml:space="preserve"
      >teaches to ►</text
    ></g
    ><g transform="translate(270,200)"
    ><path fill="none" d="M10.5 140.5 L10.5 70.5" clip-path="url(#clipPath8)"
      /><path fill="none" d="M10.5 70.5 L170.5 10.5" clip-path="url(#clipPath8)"
      /><text x="14" font-size="14px" y="112.9844" clip-path="url(#clipPath8)" font-family="sans-serif" stroke="none" xml:space="preserve"
      >teaches to ►</text
    ></g
    ><g transform="translate(120,190)"
    ><path fill="none" d="M10.5 80.5 L50.5 40.5" clip-path="url(#clipPath9)"
      /><path fill="none" d="M50.5 40.5 L300.5 10.5" clip-path="url(#clipPath9)"
      /><text x="34" font-size="14px" y="67.9844" clip-path="url(#clipPath9)" font-family="sans-serif" stroke="none" xml:space="preserve"
      >teaches to ►</text
    ></g
    ><g transform="translate(510,190)"
    ><path fill="none" d="M310.5 70.5 L290.5 40.5" clip-path="url(#clipPath10)"
      /><path fill="none" d="M290.5 40.5 L10.5 10.5" clip-path="url(#clipPath10)"
      /><text x="304" font-size="14px" y="62.9844" clip-path="url(#clipPath10)" font-family="sans-serif" stroke="none" xml:space="preserve"
      >teaches to ►</text
    ></g
    ><g transform="translate(210,60)"
    ><path fill="none" d="M10.5 10.5 L50.5 80.5" clip-path="url(#clipPath11)"
      /><path fill="none" d="M50.5 80.5 L230.5 110.5" clip-path="url(#clipPath11)"
      /><text x="34" font-size="14px" y="52.9844" clip-path="url(#clipPath11)" font-family="sans-serif" stroke="none" xml:space="preserve"
      >teaches to ►</text
    ></g
    ><g transform="translate(120,170)"
    ><path fill="none" d="M10.5 20.5 L290.5 20.5" clip-path="url(#clipPath12)"
      /><text x="109.5962" font-size="14px" y="16" clip-path="url(#clipPath12)" font-family="sans-serif" stroke="none" xml:space="preserve"
      >teaches to ►</text
    ></g
    ><g transform="translate(520,170)"
    ><path fill="none" d="M320.5 20.5 L10.5 20.5" clip-path="url(#clipPath13)"
      /><text x="124.5962" font-size="14px" y="16" clip-path="url(#clipPath13)" font-family="sans-serif" stroke="none" xml:space="preserve"
      >teaches to ►</text
    ></g
    ><g transform="translate(490,60)"
    ><path fill="none" d="M230.5 10.5 L210.5 70.5" clip-path="url(#clipPath14)"
      /><path fill="none" d="M210.5 70.5 L10.5 110.5" clip-path="url(#clipPath14)"
      /><text x="224" font-size="14px" y="47.9844" clip-path="url(#clipPath14)" font-family="sans-serif" stroke="none" xml:space="preserve"
      >teaches to ►</text
    ></g
    ><g transform="translate(460,60)"
    ><path fill="none" d="M10.5 10.5 L10.5 110.5" clip-path="url(#clipPath15)"
      /><text x="14" font-size="14px" y="67.9844" clip-path="url(#clipPath15)" font-family="sans-serif" stroke="none" xml:space="preserve"
      >teaches to ►</text
    ></g
  ></g
></svg
>
